…
time_df = out$time_df
```

# EDA

## For several tickers

### Plots for raw data

``` r
# for categorical and numerical EDA
df
```

    ## # A tibble: 871 × 14
    ##    ticker name   market type  compo…¹ share…²      v      vw       o       c       h
    ##    <chr>  <chr>  <chr>  <chr> <chr>   <chr>    <dbl>   <dbl>   <dbl>   <dbl>   <dbl>
    ##  1 FBMCF  BUFFA… otc    OS    BBG000… BBG001… 1.86e3 9.5 e-3 9.5 e-3 9.5 e-3 9.5 e-3
    ##  2 CNTMF  CANSO… otc    OS    BBG00N… BBG00N… 7.88e4 1.95e-1 2   e-1 1.9 e-1 2.05e-1
    ##  3 BCMRF  BCM R… otc    OS    BBG000… BBG001… 8.02e4 1.28e-1 1.22e-1 1.28e-1 1.3 e-1
    ##  4 CRMK   CERME… otc    CS    BBG000… BBG001… 2   e3 2   e-2 2   e-2 2   e-2 2   e-2
    ##  5 HEOFF  H2O I… otc    OS    BBG000… BBG001… 4.12e3 1.51e+0 1.45e+0 1.54e+0 1.54e+0
    ##  6 BDWBY  BUDWE… otc    ADRC  BBG00Q… BBG00Q… 7.36e3 1.13e+1 1.14e+1 1.12e+1 1.14e+1
    ##  7 HKMPY  HIKMA… otc    ADRC  BBG000… BBG001… 1.58e3 3.99e+1 3.94e+1 3.97e+1 4.05e+1
    ##  8 MKRYF  MANIT… otc    OS    BBG001… BBG001… 5.1 e2 1   e-5 1   e-5 1   e-5 1   e-5
    ##  9 ECAOF  ECO A… otc    OS    BBG000… BBG001… 2.7 e3 3.65e-1 3.61e-1 3.75e-1 3.75e-1
    ## 10 NHMD   NATE'… otc    CS    BBG000… BBG001… 1.89e7 1.46e-3 1.6 e-3 1.4 e-3 1.7 e-3
    ## # … with 861 more rows, 3 more variables: l <dbl>, t <dbl>, n <int>, and
    ## #   abbreviated variable names ¹​composite_figi, ²​share_class_figi
…
